Microstructural changes underlying the clinical progression of Parkinson’s disease
…
## # A tibble: 618 × 6
##    pseudonym                ParticipantType TimepointNr ROI     Value      Delta
##    <chr>                    <fct>           <fct>       <fct>   <dbl>      <dbl>
##  1 sub-POMU20F386A713FBC96C Patient         2           pSN_avg 0.394  0.0631   
##  2 sub-POMU9E8C713BB3FCB6D8 Patient         0           pSN_avg 0.386 -0.0000790
##  3 sub-POMU9E8C713BB3FCB6D8 Patient         2           pSN_avg 0.386 -0.0000790
##  4 sub-POMUCAC0EDBAB573E7C8 Patient         2           pSN_avg 0.385  0.0219   
##  5 sub-POMU5E52DC9411ED0C9C Patient         0           pSN_avg 0.380 -0.0325   
##  6 sub-POMU5627BB30E3214919 Patient         2           pSN_avg 0.378  0.0204   
##  7 sub-POMUCAC6D9D7546BA42F Patient         0           pSN_avg 0.377 NA        
##  8 sub-POMU06664E2F91AA04E0 Patient         2           pSN_avg 0.375  0.0317   
##  9 sub-POMUC807A64CCB3307BA Patient         2           pSN_avg 0.374  0.0143   
## 10 sub-POMU2CDEB06F355EE49D Patient         0           pSN_avg 0.373 -0.0198   
## 11 sub-POMUCAC0EDBAB573E7C8 Patient         0           pSN_avg 0.363  0.0219   
## 12 sub-POMUE65E5B80373D0504 Patient         0           pSN_avg 0.362 NA        
## 13 sub-POMUC807A64CCB3307BA Patient         0           pSN_avg 0.359  0.0143   
## 14 sub-POMUEAE92BBCD628CC94 Patient         2           pSN_avg 0.359  0.0177   
## 15 sub-POMUD288CB7C2273AD34 Patient         2           pSN_avg 0.358  0.0231   
## 16 sub-POMU5627BB30E3214919 Patient         0           pSN_avg 0.358  0.0204   
## 17 sub-POMU4676B34286BA2D6E Patient         0           pSN_avg 0.355 -0.00625  
## 18 sub-POMU5A41F2B445A5BFD6 Patient         0           pSN_avg 0.354 -0.00461  
## 19 sub-POMU2CDEB06F355EE49D Patient         2           pSN_avg 0.353 -0.0198   
## 20 sub-POMUCE5C9ED9AF4FB994 Patient         2           pSN_avg 0.353  0.0936   
## # ℹ 598 more rows

## # A tibble: 618 × 6
##    pseudonym                ParticipantType TimepointNr ROI     Value   Delta
##    <chr>                    <fct>           <fct>       <fct>   <dbl>   <dbl>
##  1 sub-POMU32C52AEA06F071F1 Patient         0           pSN_avg 0.342 -0.183 
##  2 sub-POMU36ED9D58155B1CB0 Patient         0           pSN_avg 0.298 -0.0891
##  3 sub-POMU36ED9D58155B1CB0 Patient         2           pSN_avg 0.209 -0.0891
##  4 sub-POMUB6FBED8DC74878A8 Patient         0           pSN_avg 0.352 -0.0716
##  5 sub-POMUB6FBED8DC74878A8 Patient         2           pSN_avg 0.280 -0.0716
##  6 sub-POMU5433A8F50C28EED0 Patient         0           pSN_avg 0.260 -0.0711
##  7 sub-POMU5433A8F50C28EED0 Patient         2           pSN_avg 0.189 -0.0711
##  8 sub-POMU1EDD7C2E9E8DF70C Patient         0           pSN_avg 0.297 -0.0660
##  9 sub-POMU1EDD7C2E9E8DF70C Patient         2           pSN_avg 0.231 -0.0660
## 10 sub-POMU48DDAA06FA8012C5 Patient         0           pSN_avg 0.290 -0.0651
## 11 sub-POMUAAF065845E79A42A Patient         0           pSN_avg 0.249 -0.0645
## 12 sub-POMUAAF065845E79A42A Patient         2           pSN_avg 0.185 -0.0645
## 13 sub-POMU103DF05F26F3F240 Patient         0           pSN_avg 0.218 -0.0611
## 14 sub-POMU103DF05F26F3F240 Patient         2           pSN_avg 0.157 -0.0611
## 15 sub-POMUE8538046C2F87D5D Patient         0           pSN_avg 0.258 -0.0552
## 16 sub-POMUE8538046C2F87D5D Patient         2           pSN_avg 0.203 -0.0552
## 17 sub-POMU98ADD50DEBE46D5D Patient         0           pSN_avg 0.243 -0.0546
## 18 sub-POMU98ADD50DEBE46D5D Patient         2           pSN_avg 0.188 -0.0546
## 19 sub-POMUB2DCE5473F9AE647 Patient         0           pSN_avg 0.298 -0.0527
## 20 sub-POMUB2DCE5473F9AE647 Patient         2           pSN_avg 0.245 -0.0527
## # ℹ 598 more rows

## # A tibble: 618 × 6
##    pseudonym                ParticipantType TimepointNr ROI     Value  Delta
##    <chr>                    <fct>           <fct>       <fct>   <dbl>  <dbl>
##  1 sub-POMUC86C6B41DE5A61DB Patient         0           pSN_avg 0.155 0.115 
##  2 sub-POMUC86C6B41DE5A61DB Patient         2           pSN_avg 0.271 0.115 
##  3 sub-POMU1EDE8A58AF75A9D4 Patient         0           pSN_avg 0.197 0.109 
##  4 sub-POMU1EDE8A58AF75A9D4 Patient         2           pSN_avg 0.306 0.109 
##  5 sub-POMUCE5C9ED9AF4FB994 Patient         0           pSN_avg 0.260 0.0936
##  6 sub-POMUCE5C9ED9AF4FB994 Patient         2           pSN_avg 0.353 0.0936
##  7 sub-POMU782CA9DEB7DD68CC Patient         0           pSN_avg 0.253 0.0883
##  8 sub-POMU782CA9DEB7DD68CC Patient         2           pSN_avg 0.341 0.0883
##  9 sub-POMU78F3163BDCBF97A5 Patient         0           pSN_avg 0.198 0.0859
## 10 sub-POMU78F3163BDCBF97A5 Patient         2           pSN_avg 0.283 0.0859
## 11 sub-POMU1E7EF007D32758D4 Patient         0           pSN_avg 0.232 0.0855
## 12 sub-POMU1E7EF007D32758D4 Patient         2           pSN_avg 0.318 0.0855
## 13 sub-POMU86FC41D3E1F9F145 Patient         0           pSN_avg 0.137 0.0803
## 14 sub-POMU86FC41D3E1F9F145 Patient         2           pSN_avg 0.218 0.0803
## 15 sub-POMUE664379C5E29F377 Patient         0           pSN_avg 0.261 0.0784
## 16 sub-POMUE664379C5E29F377 Patient         2           pSN_avg 0.340 0.0784
## 17 sub-POMUA07DDC184B872A86 Patient         0           pSN_avg 0.218 0.0760
## 18 sub-POMUA07DDC184B872A86 Patient         2           pSN_avg 0.294 0.0760
## 19 sub-POMUE21C660F063ACA0A Patient         0           pSN_avg 0.228 0.0722
## 20 sub-POMUE21C660F063ACA0A Patient         2           pSN_avg 0.300 0.0722
## # ℹ 598 more rows

## # A tibble: 95 × 6
##    pseudonym                ParticipantType TimepointNr ROI     Value   Delta
##    <chr>                    <fct>           <fct>       <fct>   <dbl>   <dbl>
##  1 sub-POMU30CE5DEF72CFA6AF Healthy         2           pSN_avg 0.271  0.0924
##  2 sub-POMU2C21E1BA295A20F8 Healthy         2           pSN_avg 0.267  0.0154
##  3 sub-POMU00366691DE130349 Healthy         2           pSN_avg 0.258  0.0561
##  4 sub-POMU9A9FCBF7A3B296CB Healthy         2           pSN_avg 0.253  0.0248
##  5 sub-POMU2C21E1BA295A20F8 Healthy         0           pSN_avg 0.252  0.0154
##  6 sub-POMU544AB9A5B2A3460A Healthy         0           pSN_avg 0.251 -0.0201
##  7 sub-POMU6EB01D2EB4651886 Healthy         0           pSN_avg 0.249 NA     
##  8 sub-POMU0839DB3E25F5F08A Healthy         0           pSN_avg 0.247 -0.0417
##  9 sub-POMU50F6AD7CEEA7D448 Healthy         0           pSN_avg 0.245 -0.0294
## 10 sub-POMUDE91264587A77197 Healthy         0           pSN_avg 0.242 -0.0437
## 11 sub-POMU88EC9E198C36CDED Healthy         2           pSN_avg 0.239  0.0133
## 12 sub-POMU2CEA66C9020CBE13 Healthy         0           pSN_avg 0.238 -0.0259
## 13 sub-POMU08564C806B08A4EF Healthy         0           pSN_avg 0.231 -0.0215
## 14 sub-POMU544AB9A5B2A3460A Healthy         2           pSN_avg 0.230 -0.0201
## 15 sub-POMU002A9E62F2779ACD Healthy         2           pSN_avg 0.230  0.0185
## 16 sub-POMU4428EB610802D344 Healthy         0           pSN_avg 0.230 -0.0289
## 17 sub-POMU84491AF5A367D766 Healthy         0           pSN_avg 0.229 -0.0178
## 18 sub-POMU9A9FCBF7A3B296CB Healthy         0           pSN_avg 0.228  0.0248
## 19 sub-POMUC24CEF1A39F8E316 Healthy         0           pSN_avg 0.228 NA     
## 20 sub-POMU88EC9E198C36CDED Healthy         0           pSN_avg 0.225  0.0133
## # ℹ 75 more rows

## # A tibble: 95 × 6
##    pseudonym                ParticipantType TimepointNr ROI     Value   Delta
##    <chr>                    <fct>           <fct>       <fct>   <dbl>   <dbl>
##  1 sub-POMU5697F79F6BA93096 Healthy         0           pSN_avg 0.196 -0.0542
##  2 sub-POMU5697F79F6BA93096 Healthy         2           pSN_avg 0.142 -0.0542
##  3 sub-POMUDE91264587A77197 Healthy         0           pSN_avg 0.242 -0.0437
##  4 sub-POMUDE91264587A77197 Healthy         2           pSN_avg 0.198 -0.0437
##  5 sub-POMU0839DB3E25F5F08A Healthy         0           pSN_avg 0.247 -0.0417
##  6 sub-POMU0839DB3E25F5F08A Healthy         2           pSN_avg 0.205 -0.0417
##  7 sub-POMU62B0AF5FAF960CEA Healthy         0           pSN_avg 0.209 -0.0408
##  8 sub-POMU62B0AF5FAF960CEA Healthy         2           pSN_avg 0.168 -0.0408
##  9 sub-POMU50F6AD7CEEA7D448 Healthy         0           pSN_avg 0.245 -0.0294
## 10 sub-POMU50F6AD7CEEA7D448 Healthy         2           pSN_avg 0.216 -0.0294
## 11 sub-POMU4428EB610802D344 Healthy         0           pSN_avg 0.230 -0.0289
## 12 sub-POMU4428EB610802D344 Healthy         2           pSN_avg 0.201 -0.0289
## 13 sub-POMUFC23AD309CC980F0 Healthy         0           pSN_avg 0.219 -0.0270
## 14 sub-POMUFC23AD309CC980F0 Healthy         2           pSN_avg 0.193 -0.0270
## 15 sub-POMU06C08BB18FE38A3B Healthy         0           pSN_avg 0.187 -0.0266
## 16 sub-POMU06C08BB18FE38A3B Healthy         2           pSN_avg 0.160 -0.0266
## 17 sub-POMU0A6DB3C02691EDC8 Healthy         0           pSN_avg 0.194 -0.0263
## 18 sub-POMU0A6DB3C02691EDC8 Healthy         2           pSN_avg 0.168 -0.0263
## 19 sub-POMU2CEA66C9020CBE13 Healthy         0           pSN_avg 0.238 -0.0259
## 20 sub-POMU2CEA66C9020CBE13 Healthy         2           pSN_avg 0.212 -0.0259
## # ℹ 75 more rows

## # A tibble: 95 × 6
##    pseudonym                ParticipantType TimepointNr ROI     Value  Delta
##    <chr>                    <fct>           <fct>       <fct>   <dbl>  <dbl>
##  1 sub-POMU30CE5DEF72CFA6AF Healthy         0           pSN_avg 0.179 0.0924
##  2 sub-POMU30CE5DEF72CFA6AF Healthy         2           pSN_avg 0.271 0.0924
##  3 sub-POMU00366691DE130349 Healthy         0           pSN_avg 0.202 0.0561
##  4 sub-POMU00366691DE130349 Healthy         2           pSN_avg 0.258 0.0561
##  5 sub-POMUE2B44AEA98A5092B Healthy         0           pSN_avg 0.169 0.0415
##  6 sub-POMUE2B44AEA98A5092B Healthy         2           pSN_avg 0.211 0.0415
##  7 sub-POMU7E16E08D6D3BD46C Healthy         0           pSN_avg 0.147 0.0322
##  8 sub-POMU7E16E08D6D3BD46C Healthy         2           pSN_avg 0.179 0.0322
##  9 sub-POMU9A9FCBF7A3B296CB Healthy         0           pSN_avg 0.228 0.0248
## 10 sub-POMU9A9FCBF7A3B296CB Healthy         2           pSN_avg 0.253 0.0248
## 11 sub-POMUFEFFE5FD3BE56D30 Healthy         0           pSN_avg 0.180 0.0228
## 12 sub-POMUFEFFE5FD3BE56D30 Healthy         2           pSN_avg 0.203 0.0228
## 13 sub-POMUFA0E82FC19D3C21A Healthy         0           pSN_avg 0.166 0.0206
## 14 sub-POMUFA0E82FC19D3C21A Healthy         2           pSN_avg 0.187 0.0206
## 15 sub-POMUF6DCA6B86D52AD05 Healthy         0           pSN_avg 0.179 0.0196
## 16 sub-POMUF6DCA6B86D52AD05 Healthy         2           pSN_avg 0.199 0.0196
## 17 sub-POMU002A9E62F2779ACD Healthy         0           pSN_avg 0.212 0.0185
## 18 sub-POMU002A9E62F2779ACD Healthy         2           pSN_avg 0.230 0.0185
## 19 sub-POMU3E2A2E638B42B398 Healthy         0           pSN_avg 0.161 0.0178
## 20 sub-POMU3E2A2E638B42B398 Healthy         2           pSN_avg 0.179 0.0178
## # ℹ 75 more rows
…
## # A tibble: 638 × 6
##    pseudonym                ParticipantType TimepointNr ROI       Value    Delta
##    <chr>                    <fct>           <fct>       <fct>     <dbl>    <dbl>
##  1 sub-POMUAC1CBAC934160A54 Patient         0           bi_infer… 0.697  0.00270
##  2 sub-POMU0AEE0E7E9F195659 Patient         0           bi_infer… 0.698  0.0128 
##  3 sub-POMU249688DEF580F9F8 Patient         0           bi_infer… 0.699  0.00550
##  4 sub-POMUCCFE8D79143CF859 Patient         0           bi_infer… 0.699  0.00635
##  5 sub-POMUAC1CBAC934160A54 Patient         2           bi_infer… 0.700  0.00270
##  6 sub-POMU1AE17DD408EE8BBD Patient         0           bi_infer… 0.700  0.0188 
##  7 sub-POMU34C531D4E1BB04B1 Patient         0           bi_infer… 0.702 NA      
##  8 sub-POMUC484947B8988A6FE Patient         0           bi_infer… 0.703  0.0175 
##  9 sub-POMU249688DEF580F9F8 Patient         2           bi_infer… 0.705  0.00550
## 10 sub-POMUCCFE8D79143CF859 Patient         2           bi_infer… 0.706  0.00635
## 11 sub-POMU12FA62414399DD8F Patient         0           bi_infer… 0.706  0.0172 
## 12 sub-POMU1276E289029EB39E Patient         0           bi_infer… 0.709  0.0145 
## 13 sub-POMUC2B9BDB672CFBB53 Patient         0           bi_infer… 0.709  0.0210 
## 14 sub-POMU20E6FE0279A99887 Patient         0           bi_infer… 0.710  0.00200
## 15 sub-POMU0AEE0E7E9F195659 Patient         2           bi_infer… 0.711  0.0128 
## 16 sub-POMUC47417F47F5A82AE Patient         0           bi_infer… 0.711  0.0119 
## 17 sub-POMU20E6FE0279A99887 Patient         2           bi_infer… 0.712  0.00200
## 18 sub-POMU1EDE8A58AF75A9D4 Patient         0           bi_infer… 0.712  0.0275 
## 19 sub-POMU4E60B43DDEFC32ED Patient         0           bi_infer… 0.712  0.0117 
## 20 sub-POMUE27AD07D69403066 Patient         0           bi_infer… 0.712  0.0102 
## # ℹ 618 more rows

## # A tibble: 638 × 6
##    pseudonym                ParticipantType TimepointNr ROI        Value   Delta
##    <chr>                    <fct>           <fct>       <fct>      <dbl>   <dbl>
##  1 sub-POMU1A50F30F4A977983 Patient         2           bi_inferi… 0.919  0.0998
##  2 sub-POMU46665E6522017A63 Patient         2           bi_inferi… 0.907  0.0335
##  3 sub-POMUAAF065845E79A42A Patient         2           bi_inferi… 0.893  0.0539
##  4 sub-POMUE664379C5E29F377 Patient         2           bi_inferi… 0.889  0.0506
##  5 sub-POMUFAD42CA8190CAAF1 Patient         2           bi_inferi… 0.877  0.0656
##  6 sub-POMUB24789880E112F8F Patient         2           bi_inferi… 0.876  0.0438
##  7 sub-POMU50FA20AC84D19C9D Patient         2           bi_inferi… 0.876  0.0512
##  8 sub-POMU46665E6522017A63 Patient         0           bi_inferi… 0.874  0.0335
##  9 sub-POMU3C5E5B8DECFCAE89 Patient         2           bi_inferi… 0.869  0.0358
## 10 sub-POMUEAE92BBCD628CC94 Patient         2           bi_inferi… 0.863  0.0743
## 11 sub-POMUBA6E6F1C691FFC4F Patient         0           bi_inferi… 0.860 NA     
## 12 sub-POMUBEDA248CE1919668 Patient         0           bi_inferi… 0.858 NA     
## 13 sub-POMUEE16EA86913A5BEC Patient         2           bi_inferi… 0.855  0.0531
## 14 sub-POMU149380E0444BEC93 Patient         0           bi_inferi… 0.855 NA     
## 15 sub-POMU66F1AF44563E6F13 Patient         2           bi_inferi… 0.854  0.0243
## 16 sub-POMU20D139D8C639057F Patient         2           bi_inferi… 0.851  0.0472
## 17 sub-POMU40BEBCCE6841E564 Patient         2           bi_inferi… 0.851  0.0365
## 18 sub-POMUFEABC648D7E27C6F Patient         2           bi_inferi… 0.849  0.0307
## 19 sub-POMU8CA2D0697C7E14F2 Patient         2           bi_inferi… 0.849  0.0441
## 20 sub-POMU12EA318FBB453AB6 Patient         0           bi_inferi… 0.847 NA     
## # ℹ 618 more rows

## # A tibble: 638 × 6
##    pseudonym                ParticipantType TimepointNr ROI        Value   Delta
##    <chr>                    <fct>           <fct>       <fct>      <dbl>   <dbl>
##  1 sub-POMU00A6F1FC997C42C6 Patient         0           bi_inferi… 0.782 -0.0472
##  2 sub-POMU00A6F1FC997C42C6 Patient         2           bi_inferi… 0.734 -0.0472
##  3 sub-POMU3227DABC7764ADB0 Patient         0           bi_inferi… 0.772 -0.0347
##  4 sub-POMU706F74F4EACBB3E1 Patient         0           bi_inferi… 0.803 -0.0216
##  5 sub-POMU706F74F4EACBB3E1 Patient         2           bi_inferi… 0.782 -0.0216
##  6 sub-POMUA2B1CD3314B0AEA3 Patient         0           bi_inferi… 0.790 -0.0204
##  7 sub-POMUA2B1CD3314B0AEA3 Patient         2           bi_inferi… 0.770 -0.0204
##  8 sub-POMU6E2895037F9D639D Patient         0           bi_inferi… 0.776 -0.0173
##  9 sub-POMU6E2895037F9D639D Patient         2           bi_inferi… 0.759 -0.0173
## 10 sub-POMUD8BFFBFC180F0CBA Patient         0           bi_inferi… 0.749 -0.0160
## 11 sub-POMUD8BFFBFC180F0CBA Patient         2           bi_inferi… 0.733 -0.0160
## 12 sub-POMU4676B34286BA2D6E Patient         0           bi_inferi… 0.776 -0.0134
## 13 sub-POMU4676B34286BA2D6E Patient         2           bi_inferi… 0.763 -0.0134
## 14 sub-POMU4EFC0F78C5AE0D4D Patient         0           bi_inferi… 0.807 -0.0130
## 15 sub-POMU4EFC0F78C5AE0D4D Patient         2           bi_inferi… 0.794 -0.0130
## 16 sub-POMUB095BA226B76557A Patient         0           bi_inferi… 0.756 -0.0127
## 17 sub-POMUB095BA226B76557A Patient         2           bi_inferi… 0.743 -0.0127
## 18 sub-POMU50F5126413292BCA Patient         0           bi_inferi… 0.818 -0.0126
## 19 sub-POMU50F5126413292BCA Patient         2           bi_inferi… 0.805 -0.0126
## 20 sub-POMUB8593E25A5D0A1A1 Patient         0           bi_inferi… 0.737 -0.0104
## # ℹ 618 more rows

## # A tibble: 638 × 6
##    pseudonym                ParticipantType TimepointNr ROI         Value  Delta
##    <chr>                    <fct>           <fct>       <fct>       <dbl>  <dbl>
##  1 sub-POMU1A50F30F4A977983 Patient         0           bi_inferio… 0.819 0.0998
##  2 sub-POMU1A50F30F4A977983 Patient         2           bi_inferio… 0.919 0.0998
##  3 sub-POMUEAE92BBCD628CC94 Patient         0           bi_inferio… 0.789 0.0743
##  4 sub-POMUEAE92BBCD628CC94 Patient         2           bi_inferio… 0.863 0.0743
##  5 sub-POMUFAD42CA8190CAAF1 Patient         0           bi_inferio… 0.812 0.0656
##  6 sub-POMUFAD42CA8190CAAF1 Patient         2           bi_inferio… 0.877 0.0656
##  7 sub-POMUAAF065845E79A42A Patient         0           bi_inferio… 0.840 0.0539
##  8 sub-POMUAAF065845E79A42A Patient         2           bi_inferio… 0.893 0.0539
##  9 sub-POMU5433A8F50C28EED0 Patient         2           bi_inferio… 0.758 0.0532
## 10 sub-POMUEE16EA86913A5BEC Patient         0           bi_inferio… 0.802 0.0531
## 11 sub-POMUEE16EA86913A5BEC Patient         2           bi_inferio… 0.855 0.0531
## 12 sub-POMU50FA20AC84D19C9D Patient         0           bi_inferio… 0.824 0.0512
## 13 sub-POMU50FA20AC84D19C9D Patient         2           bi_inferio… 0.876 0.0512
## 14 sub-POMUE664379C5E29F377 Patient         0           bi_inferio… 0.839 0.0506
## 15 sub-POMUE664379C5E29F377 Patient         2           bi_inferio… 0.889 0.0506
## 16 sub-POMUC2917FBF8466577F Patient         0           bi_inferio… 0.794 0.0474
## 17 sub-POMUC2917FBF8466577F Patient         2           bi_inferio… 0.842 0.0474
## 18 sub-POMU20D139D8C639057F Patient         0           bi_inferio… 0.804 0.0472
## 19 sub-POMU20D139D8C639057F Patient         2           bi_inferio… 0.851 0.0472
## 20 sub-POMUB0140EA8042C4E37 Patient         0           bi_inferio… 0.734 0.0442
## # ℹ 618 more rows
…
